<mxfile host="app.diagrams.net" modified="2023-05-26T16:25:44.197Z" agent="Mozilla/5.0 (Windows NT 10.0; Win64; x64; rv:109.0) Gecko/20100101 Firefox/113.0" etag="HtaAQvVDJs0UWuqY1ZKM" version="21.3.4" type="device">
  <diagram name="Seite-1" id="xYs0dRnu3hy3oD7iPFBh">
    <mxGraphModel dx="1434" dy="754" grid="1" gridSize="10" guides="1" tooltips="1" connect="1" arrows="1" fold="1" page="1" pageScale="1" pageWidth="827" pageHeight="1169" math="0" shadow="0">
      <root>
        <mxCell id="0" />
        <mxCell id="1" parent="0" />
        <mxCell id="KdOU4RZF04XAK2nAHQRp-1" value="Patients" style="swimlane;childLayout=stackLayout;horizontal=1;startSize=50;horizontalStack=0;rounded=1;fontSize=14;fontStyle=0;strokeWidth=2;resizeParent=0;resizeLast=1;shadow=0;dashed=0;align=center;arcSize=4;whiteSpace=wrap;html=1;" parent="1" vertex="1">
          <mxGeometry x="50" y="50" width="100" height="90" as="geometry" />
        </mxCell>
        <mxCell id="KdOU4RZF04XAK2nAHQRp-2" value="&lt;div&gt;&lt;b&gt;+ ID (TEXT)&lt;/b&gt;&lt;/div&gt;&lt;div&gt;+ Name (TEXT)&lt;b&gt;&lt;br&gt;&lt;/b&gt;&lt;/div&gt;" style="align=left;strokeColor=none;fillColor=none;spacingLeft=4;fontSize=12;verticalAlign=top;resizable=0;rotatable=0;part=1;html=1;" parent="KdOU4RZF04XAK2nAHQRp-1" vertex="1">
          <mxGeometry y="50" width="100" height="40" as="geometry" />
        </mxCell>
        <mxCell id="KdOU4RZF04XAK2nAHQRp-3" value="StructureSets" style="swimlane;childLayout=stackLayout;horizontal=1;startSize=50;horizontalStack=0;rounded=1;fontSize=14;fontStyle=0;strokeWidth=2;resizeParent=0;resizeLast=1;shadow=0;dashed=0;align=center;arcSize=4;whiteSpace=wrap;html=1;" parent="1" vertex="1">
          <mxGeometry x="190" y="50" width="120" height="95" as="geometry" />
        </mxCell>
        <mxCell id="KdOU4RZF04XAK2nAHQRp-4" value="&lt;div&gt;&lt;b&gt;+ ID (TEXT)&lt;br&gt;&lt;/b&gt;&lt;/div&gt;&lt;div&gt;&lt;b&gt;+ PatientId (TEXT)&lt;br&gt;&lt;/b&gt;&lt;/div&gt;" style="align=left;strokeColor=none;fillColor=none;spacingLeft=4;fontSize=12;verticalAlign=top;resizable=0;rotatable=0;part=1;html=1;" parent="KdOU4RZF04XAK2nAHQRp-3" vertex="1">
          <mxGeometry y="50" width="120" height="45" as="geometry" />
        </mxCell>
        <mxCell id="KdOU4RZF04XAK2nAHQRp-5" value="Courses" style="swimlane;childLayout=stackLayout;horizontal=1;startSize=50;horizontalStack=0;rounded=1;fontSize=14;fontStyle=0;strokeWidth=2;resizeParent=0;resizeLast=1;shadow=0;dashed=0;align=center;arcSize=4;whiteSpace=wrap;html=1;" parent="1" vertex="1">
          <mxGeometry x="334" y="50" width="116" height="90" as="geometry" />
        </mxCell>
        <mxCell id="KdOU4RZF04XAK2nAHQRp-6" value="&lt;div&gt;&lt;b&gt;+ ID (TEXT)&lt;br&gt;&lt;/b&gt;&lt;/div&gt;&lt;div&gt;&lt;b&gt;+ PatientId (TEXT)&lt;br&gt;&lt;/b&gt;&lt;/div&gt;" style="align=left;strokeColor=none;fillColor=none;spacingLeft=4;fontSize=12;verticalAlign=top;resizable=0;rotatable=0;part=1;html=1;" parent="KdOU4RZF04XAK2nAHQRp-5" vertex="1">
          <mxGeometry y="50" width="116" height="40" as="geometry" />
        </mxCell>
        <mxCell id="KdOU4RZF04XAK2nAHQRp-7" value="&lt;div&gt;PlanSetups&lt;/div&gt;" style="swimlane;childLayout=stackLayout;horizontal=1;startSize=50;horizontalStack=0;rounded=1;fontSize=14;fontStyle=0;strokeWidth=2;resizeParent=0;resizeLast=1;shadow=0;dashed=0;align=center;arcSize=4;whiteSpace=wrap;html=1;" parent="1" vertex="1">
          <mxGeometry x="40" y="190" width="310" height="140" as="geometry" />
        </mxCell>
        <mxCell id="KdOU4RZF04XAK2nAHQRp-8" value="&lt;div&gt;&lt;b&gt;+ PatientId (TEXT) for&lt;/b&gt;&lt;b&gt;. key(StructureSets &amp;amp; Courses)&lt;/b&gt;&lt;/div&gt;&lt;div&gt;&lt;b&gt;+ CourseId (TEXT) for. key(Courses)&lt;br&gt;&lt;/b&gt;&lt;/div&gt;&lt;div&gt;&lt;b&gt;+ PlanSetupId (TEXT)&lt;/b&gt;&lt;/div&gt;&lt;div&gt;&lt;b&gt;+ StructureSetId (TEXT) for. key(StructureSets)&lt;br&gt;&lt;/b&gt;&lt;/div&gt;+ PlanSetup (TEXT) [JSON Object]&lt;br&gt;&lt;div&gt;&lt;b&gt;&lt;br&gt;&lt;/b&gt;&lt;/div&gt;" style="align=left;strokeColor=none;fillColor=none;spacingLeft=4;fontSize=12;verticalAlign=top;resizable=0;rotatable=0;part=1;html=1;" parent="KdOU4RZF04XAK2nAHQRp-7" vertex="1">
          <mxGeometry y="50" width="310" height="90" as="geometry" />
        </mxCell>
        <mxCell id="-3XA-SGk6s6KF1GF4g73-3" value="OptimizationResults" style="swimlane;childLayout=stackLayout;horizontal=1;startSize=50;horizontalStack=0;rounded=1;fontSize=14;fontStyle=0;strokeWidth=2;resizeParent=0;resizeLast=1;shadow=0;dashed=0;align=center;arcSize=4;whiteSpace=wrap;html=1;" vertex="1" parent="1">
          <mxGeometry x="370" y="190" width="268" height="140" as="geometry" />
        </mxCell>
        <mxCell id="-3XA-SGk6s6KF1GF4g73-4" value="&lt;div&gt;&lt;b&gt;+ PatientId (TEXT) for. key(PlanSetups)&lt;br&gt;&lt;/b&gt;&lt;/div&gt;&lt;div&gt;&lt;b&gt;+ CourseId (TEXT) &lt;/b&gt;&lt;b&gt;for. key(PlanSetups)&lt;/b&gt;&lt;/div&gt;&lt;div&gt;&lt;b&gt;+ PlanSetupId (TEXT) &lt;/b&gt;&lt;b&gt;for. key(PlanSetups)&lt;/b&gt;&lt;/div&gt;&lt;div&gt;&lt;b&gt;+ StructureSetId (TEXT) &lt;/b&gt;&lt;b&gt;for. key(PlanSetups)&lt;/b&gt;&lt;/div&gt;+ OptimizationRunResult (TEXT) [JSON Object]&lt;br&gt;&lt;div&gt;&lt;b&gt;&lt;br&gt;&lt;/b&gt;&lt;/div&gt;" style="align=left;strokeColor=none;fillColor=none;spacingLeft=4;fontSize=12;verticalAlign=top;resizable=0;rotatable=0;part=1;html=1;" vertex="1" parent="-3XA-SGk6s6KF1GF4g73-3">
          <mxGeometry y="50" width="268" height="90" as="geometry" />
        </mxCell>
      </root>
    </mxGraphModel>
  </diagram>
</mxfile>
